^D:\PROJEKT\LEKTIONER P3\TKEY\UPPGIFT1\UPPGIFT1\STDAFX.CPP
D:\PROJEKT\LEKTIONER P3\TKEY\UPPGIFT1\UPPGIFT1\DEBUG\UPPGIFT1.PCH
D:\PROJEKT\LEKTIONER P3\TKEY\UPPGIFT1\UPPGIFT1\DEBUG\VC140.PDB
D:\PROJEKT\LEKTIONER P3\TKEY\UPPGIFT1\UPPGIFT1\DEBUG\VC140.IDB
D:\PROJEKT\LEKTIONER P3\TKEY\UPPGIFT1\UPPGIFT1\DEBUG\STDAFX.OBJ
^D:\PROJEKT\LEKTIONER P3\TKEY\UPPGIFT1\UPPGIFT1\UPPGIFT1.CPP
D:\PROJEKT\LEKTIONER P3\TKEY\UPPGIFT1\UPPGIFT1\DEBUG\VC140.PDB
D:\PROJEKT\LEKTIONER P3\TKEY\UPPGIFT1\UPPGIFT1\DEBUG\VC140.IDB
D:\PROJEKT\LEKTIONER P3\TKEY\UPPGIFT1\UPPGIFT1\DEBUG\UPPGIFT1.OBJ
